// This file is generated automatically. All manually added changes will be removed when running the Converter.
// Map 043-3: Sandy Dungeon Level 1 warps
043-3,31,26,0	warp	#043-3_31_26	0,0,002-3,22,86
043-3,77,30,0	warp	#043-3_77_30	0,0,043-4,47,67
043-3,116,36,0	warp	#043-3_116_36	0,0,005-3,78,87
043-3,32,37,0	warp	#043-3_32_37	1,0,005-3,33,85
