// This file is generated automatically. All manually added changes will be removed when running the Converter.
// Map 017-2: Theater warps
017-2,26,31,0	warp	#017-2_26_31	0,0,017-1,43,33
017-2,26,21,0	warp	#017-2_26_21	0,0,017-9,36,27
