// This file is generated automatically. All manually added changes will be removed when running the Converter.
// Map 043-1: Beach mobs
043-1,0,0,0,0	monster	Sea Slime	1033,17,40000,30000
043-1,0,0,0,0	monster	Yellow Slime	1007,15,60000,60000
043-1,0,0,0,0	monster	Green Slime	1005,20,60000,60000
