// This file is generated automatically. All manually added changes will be removed when running the Converter.
// Map 027-4: Crypt Sub-Basement One mobs
027-4,39,84,19,11	monster	Skeleton	1043,2,60000,8000
027-4,27,57,7,11	monster	Lady Skeleton	1044,2,60000,8000
027-4,108,77,19,7	monster	Skeleton	1043,2,60000,8000
027-4,61,37,19,15	monster	Lady Skeleton	1044,2,60000,8000
027-4,101,36,19,15	monster	Lady Skeleton	1044,2,60000,8000
