// This file is generated automatically. All manually added changes will be removed when running the Converter.
// Map 027-4: Crypt Sub-Basement One warps
027-4,126,17,0	warp	#027-4_126_17	5,0,027-3,136,97
027-4,22,98,0	warp	#027-4_22_98	3,0,027-5,124,18
