
026-2,20,124,0	script	Eurni	NPC136,{
    @halloween_npc_id = $@halloween_npc_eurni;
    callfunc "TrickOrTreat";

    mes "[Eurni the Surgeon]";
    mes "\"Are you tired of who you are?\"";
    next;
    mes "\"Would you be interested in changing your appearance?\"";
    next;
    callfunc "Barber";
    mes "[Eurni the Surgeon]";
    mes "\"Come back any time!\"";
    close;
}
