// This file is generated automatically. All manually added changes will be removed when running the Converter.
// Map 017-1: Woodland Hills warps
017-1,46,105,0	warp	#017-1_46_105	3,0,013-1,45,21
017-1,43,32,0	warp	#017-1_43_32	0,0,017-2,26,30
017-1,76,31,0	warp	#017-1_76_31	0,0,017-3,69,68
017-1,98,20,0	warp	#017-1_98_20	0,0,017-3,83,52
017-1,97,31,0	warp	#017-1_97_31	0,0,017-3,76,65
017-1,168,90,0	warp	#017-1_168_90	0,0,056-2,34,30
017-1,188,104,0	warp	#017-1_188_104	0,0,055-1,74,21
017-1,182,16,0	warp	#017-1_182_16	2,0,045-1,25,178
