// This file is generated automatically. All manually added changes will be removed when running the Converter.
// Map 006-3: Desert Mountain Cave warps
006-3,40,26,0	warp	#006-3_40_26	0,0,006-1,40,28
006-3,55,27,0	warp	#006-3_55_27	0,0,006-1,55,29
006-3,62,30,0	warp	#006-3_62_30	0,0,006-1,62,32
006-3,86,24,0	warp	#006-3_86_24	0,0,006-1,86,26
006-3,91,24,0	warp	#006-3_91_24	0,0,006-1,91,26
006-3,122,24,0	warp	#006-3_122_24	0,0,006-1,114,24
006-3,114,49,0	warp	#006-3_114_49	0,0,006-1,114,51
006-3,104,44,0	warp	#006-3_104_44	0,0,006-1,98,48
006-3,77,44,0	warp	#006-3_77_44	0,0,006-1,77,46
006-3,60,68,0	warp	#006-3_60_68	0,0,006-1,60,60
006-3,92,63,0	warp	#006-3_92_63	0,0,006-1,92,65
006-3,112,74,0	warp	#006-3_112_74	0,0,006-1,112,76
006-3,110,56,0	warp	#006-3_110_56	0,0,006-1,102,55
006-3,125,59,0	warp	#006-3_125_59	0,0,006-1,117,59
006-3,74,90,0	warp	#006-3_74_90	0,0,006-1,74,92
006-3,51,90,0	warp	#006-3_51_90	0,0,006-1,51,92
006-3,38,121,0	warp	#006-3_38_121	0,0,006-1,38,123
006-3,79,120,0	warp	#006-3_79_120	0,0,006-1,83,119
006-3,125,66,0	warp	#006-3_125_66	0,0,005-3,85,52
006-3,89,46,0	warp	#006-3_89_46	0,0,005-3,63,49
