// This file is generated automatically. All manually added changes will be removed when running the Converter.
// Map 004-5: Pirate Den mobs
004-5,51,70,3,2	monster	Grenadier	1121,1,100000,30000
004-5,51,70,3,1	monster	Swashbuckler	1120,2,100000,30000
004-5,50,70,4,1	monster	Thug	1119,2,100000,30000
004-5,45,86,3,2	monster	Grenadier	1121,1,100000,30000
004-5,44,86,4,1	monster	Thug	1119,2,100000,30000
004-5,45,86,3,1	monster	Swashbuckler	1120,2,100000,30000
004-5,64,38,3,2	monster	Grenadier	1121,1,100000,30000
004-5,63,38,4,1	monster	Thug	1119,2,100000,30000
004-5,64,38,3,1	monster	Swashbuckler	1120,2,100000,30000
004-5,91,38,3,2	monster	Grenadier	1121,1,100000,30000
004-5,90,38,4,1	monster	Thug	1119,2,100000,30000
004-5,91,38,3,1	monster	Swashbuckler	1120,2,100000,30000
