// This file is generated automatically. All manually added changes will be removed when running the Converter.
// Map 012-1: Woodland Hills warps
012-1,51,39,0	warp	#012-1_51_39	0,0,012-3,380,52
012-1,147,67,0	warp	#012-1_147_67	0,0,012-3,484,115
012-1,41,48,0	warp	#012-1_41_48	0,0,012-3,363,87
012-1,44,88,0	warp	#012-1_44_88	0,0,012-3,365,196
012-1,92,104,0	warp	#012-1_92_104	0,0,012-3,280,120
012-1,98,99,0	warp	#012-1_98_99	0,0,012-3,47,90
012-1,109,92,0	warp	#012-1_109_92	0,0,012-3,90,82
012-1,123,90,0	warp	#012-1_123_90	0,0,012-3,48,165
012-1,150,61,0	warp	#012-1_150_61	0,3,013-1,21,75
012-1,132,174,0	warp	#012-1_132_174	1,0,011-1,73,15
012-1,65,126,0	warp	#012-1_65_126	0,0,012-3,186,150
