// This file is generated automatically. All manually added changes will be removed when running the Converter.
// Map 001-2: South Tulimshar Indoor warps
001-2,25,65,0	warp	#001-2_25_65	0,0,001-1,114,100
001-2,28,102,0	warp	#001-2_28_102	0,0,001-1,27,33
001-2,28,86,0	warp	#001-2_28_86	0,0,001-1,28,22
001-2,105,102,0	warp	#001-2_105_102	1,0,001-1,54,35
001-2,25,28,0	warp	#001-2_25_28	0,0,001-1,49,72
001-2,28,28,0	warp	#001-2_28_28	0,0,001-1,52,72
001-2,31,28,0	warp	#001-2_31_28	0,0,001-1,55,72
001-2,71,102,0	warp	#001-2_71_102	0,0,001-1,37,33
001-2,105,73,0	warp	#001-2_105_73	3,0,001-2,104,42
001-2,105,43,0	warp	#001-2_105_43	3,0,001-2,104,74
001-2,114,53,0	warp	#001-2_114_53	0,0,001-1,57,23
001-2,95,53,0	warp	#001-2_95_53	0,0,001-1,52,23
001-2,57,90,0	warp	#001-2_57_90	0,0,001-2,35,94
001-2,36,95,0	warp	#001-2_36_95	0,1,001-2,58,90
001-2,65,26,0	warp	#001-2_65_26	0,0,001-1,59,99
