// This file is generated automatically. All manually added changes will be removed when running the Converter.
// Map 015-1: Woodland warps
015-1,93,55,0	warp	#015-1_93_55	0,1,010-1,17,54
015-1,59,31,0	warp	#015-1_59_31	0,0,015-3,31,42
015-1,59,101,0	warp	#015-1_59_101	3,0,025-1,89,20
