// This file is generated automatically. All manually added changes will be removed when running the Converter.
// Map 009-8: Chez Celestia warps
009-8,26,122,0	warp	#009-8_26_122	0,0,009-1,74,48
009-8,22,134,0	warp	#009-8_22_134	0,0,009-1,71,54
009-8,56,55,0	warp	#009-8_56_55	1,0,069-2,44,127
009-8,53,40,0	warp	#009-8_53_40	0,0,069-2,97,127
009-8,58,40,0	warp	#009-8_58_40	0,0,069-2,116,127
009-8,79,99,0	warp	#009-8_79_99	0,0,069-2,117,61
009-8,87,78,0	warp	#009-8_87_78	0,0,069-2,86,61
009-8,87,56,0	warp	#009-8_87_56	0,0,069-2,55,61
009-8,79,39,0	warp	#009-8_79_39	0,0,069-2,24,61
009-8,33,39,0	warp	#009-8_33_39	0,0,069-2,117,30
009-8,24,56,0	warp	#009-8_24_56	0,0,069-2,86,30
009-8,24,78,0	warp	#009-8_24_78	0,0,069-2,55,30
009-8,32,98,0	warp	#009-8_32_98	0,0,069-2,24,30
