002-3,82,32,0	script	#Sandstorm_Mine_Barrier	NPC45,0,0,{
    if (QL_MINEALL >= 8) goto L_Barrier_Open;

    message strcharinfo(0), "Some force seems to block your entrance.";
    goto L_End;

L_Barrier_Open:
    warp "002-4",37,31;
    goto L_End;

L_End:
    end;
}
