// This file is generated automatically. All manually added changes will be removed when running the Converter.
// Map 009-1: Hurnscald mobs
009-1,74,32,1,0	monster	Clover Patch	1037,1,100000,120000
009-1,29,44,4,6	monster	Pink Flower	1014,2,0,250
009-1,88,51,7,2	monster	Squirrel	1038,2,0,5000
009-1,80,38,2,2	monster	Squirrel	1038,1,0,5000
009-1,0,0,0,0	monster	Butterfly	1055,5,30,20
