
009-1,53,40,0	script	Soul Menhir#hurnscald	NPC344,{
    @map$ = "009-1";
    setarray @Xs, 52, 53, 54, 52, 54, 52, 54;
    setarray @Ys, 39, 39, 39, 40, 40, 41, 41;
    @x = 0;
    @y = 0;
    callfunc "SoulMenhir";
    @map$ = "";
    cleararray @Xs[0], 0, 7;
    cleararray @Ys[0], 0, 7;
    @x = 0;
    @y = 0;
    close;
}
