// This file is generated automatically. All manually added changes will be removed when running the Converter.
// Map 021-3: Central Tulimshar Sewers warps
021-3,143,127,0	warp	#021-3_143_127	0,0,001-1,117,109
021-3,57,99,0	warp	#021-3_57_99	0,0,001-1,60,84
021-3,29,62,0	warp	#021-3_29_62	0,0,001-1,28,45
021-3,44,143,0	warp	#021-3_44_143	0,0,004-3,80,23
