function	script	rubberBat	{
    if (gettimetick(2) - @lastbat < 2) goto L_Return;
    misceffect 403;
    @lastbat = gettimetick(2);
    goto L_Return;

L_Return:
    getitem "RubberBat", 1;
    return;
}
