// This file is generated automatically. All manually added changes will be removed when running the Converter.
// Map 055-1: Woodland Hills warps
055-1,100,83,0	warp	#055-1_100_83	0,0,055-3,30,27
055-1,100,89,0	warp	#055-1_100_89	0,0,055-3,50,42
055-1,22,52,0	warp	#055-1_22_52	0,3,013-1,135,51
055-1,137,96,0	warp	#055-1_137_96	0,0,055-3,76,39
055-1,60,93,0	warp	#055-1_60_93	0,0,055-3,96,70
055-1,75,20,0	warp	#055-1_75_20	1,0,017-1,188,103
055-1,149,63,0	warp	#055-1_149_63	0,2,057-1,20,63
