// This file is generated automatically. All manually added changes will be removed when running the Converter.
// Map 019-3: Snow Cave mobs
019-3,0,4,0,0	monster	Moggun	1061,10,100000,30000
019-3,0,4,0,0	monster	Bat	1017,50,100000,30000
