// This file is generated automatically. All manually added changes will be removed when running the Converter.

@include "npc/000-1/_import.txt"
@include "npc/001-1/_import.txt"
@include "npc/001-2/_import.txt"
@include "npc/001-3/_import.txt"
@include "npc/002-1/_import.txt"
@include "npc/002-2/_import.txt"
@include "npc/002-3/_import.txt"
@include "npc/002-4/_import.txt"
@include "npc/002-5/_import.txt"
@include "npc/003-1/_import.txt"
@include "npc/003-4/_import.txt"
@include "npc/004-1/_import.txt"
@include "npc/004-3/_import.txt"
@include "npc/004-4/_import.txt"
@include "npc/004-5/_import.txt"
@include "npc/005-3/_import.txt"
@include "npc/006-1/_import.txt"
@include "npc/006-2/_import.txt"
@include "npc/006-3/_import.txt"
@include "npc/007-1/_import.txt"
@include "npc/007-2/_import.txt"
@include "npc/008-1/_import.txt"
@include "npc/009-1/_import.txt"
@include "npc/009-2/_import.txt"
@include "npc/009-3/_import.txt"
@include "npc/009-4/_import.txt"
@include "npc/009-5/_import.txt"
@include "npc/009-6/_import.txt"
@include "npc/009-7/_import.txt"
@include "npc/009-8/_import.txt"
@include "npc/010-1/_import.txt"
@include "npc/010-2/_import.txt"
@include "npc/011-1/_import.txt"
@include "npc/011-3/_import.txt"
@include "npc/011-4/_import.txt"
@include "npc/011-6/_import.txt"
@include "npc/012-1/_import.txt"
@include "npc/012-3/_import.txt"
@include "npc/012-4/_import.txt"
@include "npc/013-1/_import.txt"
@include "npc/013-2/_import.txt"
@include "npc/013-3/_import.txt"
@include "npc/014-1/_import.txt"
@include "npc/014-3/_import.txt"
@include "npc/015-1/_import.txt"
@include "npc/015-3/_import.txt"
@include "npc/016-1/_import.txt"
@include "npc/016-2/_import.txt"
@include "npc/017-1/_import.txt"
@include "npc/017-2/_import.txt"
@include "npc/017-3/_import.txt"
@include "npc/017-4/_import.txt"
@include "npc/017-9/_import.txt"
@include "npc/018-1/_import.txt"
@include "npc/018-2/_import.txt"
@include "npc/018-3/_import.txt"
@include "npc/019-1/_import.txt"
@include "npc/019-3/_import.txt"
@include "npc/019-4/_import.txt"
@include "npc/020-1/_import.txt"
@include "npc/020-2/_import.txt"
@include "npc/020-3/_import.txt"
@include "npc/021-3/_import.txt"
@include "npc/023-1/_import.txt"
@include "npc/023-2/_import.txt"
@include "npc/023-3/_import.txt"
@include "npc/025-1/_import.txt"
@include "npc/025-3/_import.txt"
@include "npc/025-4/_import.txt"
@include "npc/026-1/_import.txt"
@include "npc/026-2/_import.txt"
@include "npc/027-1/_import.txt"
@include "npc/027-2/_import.txt"
@include "npc/027-3/_import.txt"
@include "npc/027-4/_import.txt"
@include "npc/027-5/_import.txt"
@include "npc/027-6/_import.txt"
@include "npc/027-7/_import.txt"
@include "npc/027-8/_import.txt"
@include "npc/028-1/_import.txt"
@include "npc/028-3/_import.txt"
@include "npc/029-1/_import.txt"
@include "npc/029-2/_import.txt"
@include "npc/029-3/_import.txt"
@include "npc/029-4/_import.txt"
@include "npc/030-1/_import.txt"
@include "npc/030-2/_import.txt"
@include "npc/030-3/_import.txt"
@include "npc/030-4/_import.txt"
@include "npc/031-1/_import.txt"
@include "npc/031-2/_import.txt"
@include "npc/031-3/_import.txt"
@include "npc/031-4/_import.txt"
@include "npc/032-3/_import.txt"
@include "npc/033-1/_import.txt"
@include "npc/034-1/_import.txt"
@include "npc/034-2/_import.txt"
@include "npc/035-2/_import.txt"
@include "npc/036-2/_import.txt"
@include "npc/041-1/_import.txt"
@include "npc/042-1/_import.txt"
@include "npc/043-1/_import.txt"
@include "npc/043-3/_import.txt"
@include "npc/043-4/_import.txt"
@include "npc/045-1/_import.txt"
@include "npc/046-1/_import.txt"
@include "npc/046-3/_import.txt"
@include "npc/047-1/_import.txt"
@include "npc/047-3/_import.txt"
@include "npc/048-2/_import.txt"
@include "npc/051-1/_import.txt"
@include "npc/051-3/_import.txt"
@include "npc/052-1/_import.txt"
@include "npc/052-2/_import.txt"
@include "npc/055-1/_import.txt"
@include "npc/055-3/_import.txt"
@include "npc/056-2/_import.txt"
@include "npc/057-1/_import.txt"
@include "npc/069-2/_import.txt"
@include "npc/070-1/_import.txt"
@include "npc/070-3/_import.txt"
@include "npc/099-1/_import.txt"
@include "npc/099-2/_import.txt"
@include "npc/099-3/_import.txt"
@include "npc/099-4/_import.txt"
@include "npc/099-5/_import.txt"
@include "npc/099-6/_import.txt"
@include "npc/099-7/_import.txt"
@include "npc/099-8/_import.txt"
@include "npc/botcheck/_import.txt"
@include "npc/fermi/_import.txt"
@include "npc/sec_pri/_import.txt"
"npc/_anchors.txt",
